<?xml version="1.0" encoding="UTF-8"?>
<svg width="32px" height="32px" viewBox="0 0 32 32" version="1.1" xmlns="http://www.w3.org/2000/svg" xmlns:xlink="http://www.w3.org/1999/xlink">
    <!-- Generator: Sketch 46.2 (44496) - http://www.bohemiancoding.com/sketch -->
    <title>Portfolio</title>
    <desc>Created with Sketch.</desc>
    <defs></defs>
    <g id="Page-1" stroke="none" stroke-width="1" fill="none" fill-rule="evenodd">
        <g id="Portfolio" fill="#ECECEC">
            <rect id="Rectangle-9" x="0" y="0" width="9" height="9" rx="1"></rect>
            <rect id="Rectangle-9-Copy" x="0" y="11" width="9" height="9" rx="1"></rect>
            <rect id="Rectangle-9-Copy-3" x="0" y="22" width="9" height="9" rx="1"></rect>
            <rect id="Rectangle-9" x="22" y="0" width="9" height="9" rx="1"></rect>
            <rect id="Rectangle-9-Copy-2" x="22" y="11" width="9" height="9" rx="1"></rect>
            <rect id="Rectangle-9-Copy-6" x="22" y="22" width="9" height="9" rx="1"></rect>
            <rect id="Rectangle-9-Copy-4" x="11" y="0" width="9" height="9" rx="1"></rect>
            <rect id="Rectangle-9-Copy-5" x="11" y="11" width="9" height="9" rx="1"></rect>
            <rect id="Rectangle-9-Copy-7" x="11" y="22" width="9" height="9" rx="1"></rect>
        </g>
    </g>
</svg>